{
  "name": "",
  "css_prefix_text": "icon-",
  "css_use_suffix": false,
  "hinting": true,
  "units_per_em": 1000,
  "ascent": 850,
  "glyphs": [
    {
      "uid": "bc50457410acf467b8b5721240768742",
      "css": "facebook",
      "code": 62220,
      "src": "entypo"
    },
    {
      "uid": "4c1ef492f1d2c39a2250ae457cee2a6e",
      "css": "instagram",
      "code": 61805,
      "src": "fontawesome"
    },
    {
      "uid": "b86600decaba538aca184421752cd640",
      "css": "soundcloud",
      "code": 62280,
      "src": "entypo"
    },
    {
      "uid": "fb4794d89b77ab712ad56c0dc4c76c6b",
      "css": "spotify",
      "code": 61884,
      "src": "fontawesome"
    },
    {
      "uid": "6a12c2b74456ea21cc984e11dec227a1",
      "css": "globe",
      "code": 59392,
      "src": "entypo"
    },
    {
      "uid": "47a1f80457068fbeab69fdb83d7d0817",
      "css": "youtube",
      "code": 61802,
      "src": "fontawesome"
    },
    {
      "uid": "e6eeb1a403c52c3f981eb19646021691",
      "css": "mixcloud",
      "code": 62089,
      "src": "fontawesome"
    },
    {
      "uid": "ae3so8q0b0n2h8esv9flua2nmwswa8fd",
      "css": "email",
      "code": 59393,
      "src": "modernpics"
    }
  ]
}